module busterd/scrap_pgu

go 1.20

require (
	github.com/PuerkitoBio/goquery v1.8.1
	github.com/gocolly/colly v1.2.0
	github.com/mattn/go-sqlite3 v1.14.17
	github.com/pkg/browser v0.0.0-20210911075715-681adbf594b8
	github.com/rs/zerolog v1.29.1
	github.com/urfave/cli/v2 v2.25.7
)

require (
	github.com/andybalholm/cascadia v1.3.2 // indirect
	github.com/antchfx/htmlquery v1.3.0 // indirect
	github.com/antchfx/xmlquery v1.3.17 // indirect
	github.com/antchfx/xpath v1.2.4 // indirect
	github.com/cpuguy83/go-md2man/v2 v2.0.2 // indirect
	github.com/gobwas/glob v0.2.3 // indirect
	github.com/golang/groupcache v0.0.0-20210331224755-41bb18bfe9da // indirect
	github.com/golang/protobuf v1.5.3 // indirect
	github.com/kennygrant/sanitize v1.2.4 // indirect
	github.com/mattn/go-colorable v0.1.13 // indirect
	github.com/mattn/go-isatty v0.0.19 // indirect
	github.com/russross/blackfriday/v2 v2.1.0 // indirect
	github.com/saintfish/chardet v0.0.0-20230101081208-5e3ef4b5456d // indirect
	github.com/stretchr/testify v1.8.4 // indirect
	github.com/temoto/robotstxt v1.1.2 // indirect
	github.com/xrash/smetrics v0.0.0-20201216005158-039620a65673 // indirect
	golang.org/x/net v0.12.0 // indirect
	golang.org/x/sys v0.10.0 // indirect
	golang.org/x/text v0.11.0 // indirect
	google.golang.org/appengine v1.6.7 // indirect
	google.golang.org/protobuf v1.31.0 // indirect
)
